module codeberg.org/samwhited/shopclock

go 1.19

require (
	gioui.org v0.0.0-20220919170741-90688fdd175f
	modernc.org/sqlite v1.15.3
)

require (
	gioui.org/cpu v0.0.0-20210817075930-8d6a761490d2 // indirect
	gioui.org/shader v1.0.6 // indirect
	github.com/benoitkugler/textlayout v0.1.3 // indirect
	github.com/gioui/uax v0.2.1-0.20220819135011-cda973fac06d // indirect
	github.com/go-text/typesetting v0.0.0-20220411150340-35994bc27a7b // indirect
	github.com/google/go-cmp v0.5.6 // indirect
	github.com/google/uuid v1.3.0 // indirect
	github.com/kballard/go-shellquote v0.0.0-20180428030007-95032a82bc51 // indirect
	github.com/mattn/go-isatty v0.0.12 // indirect
	github.com/remyoudompheng/bigfft v0.0.0-20200410134404-eec4a21b6bb0 // indirect
	golang.org/x/exp v0.0.0-20210722180016-6781d3edade3 // indirect
	golang.org/x/image v0.0.0-20220722155232-062f8c9fd539 // indirect
	golang.org/x/mod v0.4.2 // indirect
	golang.org/x/sys v0.0.0-20220825204002-c680a09ffe64 // indirect
	golang.org/x/text v0.3.7 // indirect
	golang.org/x/tools v0.1.0 // indirect
	golang.org/x/xerrors v0.0.0-20200804184101-5ec99f83aff1 // indirect
	lukechampine.com/uint128 v1.1.1 // indirect
	modernc.org/cc/v3 v3.35.24 // indirect
	modernc.org/ccgo/v3 v3.15.17 // indirect
	modernc.org/libc v1.14.12 // indirect
	modernc.org/mathutil v1.4.1 // indirect
	modernc.org/memory v1.0.7 // indirect
	modernc.org/opt v0.1.1 // indirect
	modernc.org/strutil v1.1.1 // indirect
	modernc.org/token v1.0.0 // indirect
)
